{
  "total": 200,
  "per_page": 10,
  "current_page": 1,
  "last_page": 20,
  "next_page_url": "http:\/\/vuetable.ratiw.net\/api\/users?sort=name%7Casc&per_page=10&page=2",
  "prev_page_url": null,
  "from": 1,
  "to": 10,
  "data": [ {
    "stationName" : "80025聚源B",
    "stationId" : "80025",
    "num" : 25,
    "lastTime" : "2017-12-03 20:00:00"
  }, {
    "stationName" : "80058市监4",
    "stationId" : "80058",
    "num" : 25,
    "lastTime" : "2017-12-03 20:00:00"
  }, {
    "stationName" : "90029城区2",
    "stationId" : "90029",
    "num" : 25,
    "lastTime" : "2017-12-03 20:00:00"
  }, {
    "stationName" : "80006市监1",
    "stationId" : "80006",
    "num" : 25,
    "lastTime" : "2017-12-03 20:00:00"
  }, {
    "stationName" : "80073曲电C",
    "stationId" : "80073",
    "num" : 25,
    "lastTime" : "2017-12-03 20:00:00"
  }, {
    "stationName" : "80031宏矿D",
    "stationId" : "80031",
    "num" : 25,
    "lastTime" : "2017-12-03 20:00:00"
  }, {
    "stationName" : "80050火炬6",
    "stationId" : "80050",
    "num" : 25,
    "lastTime" : "2017-12-03 20:00:00"
  }, {
    "stationName" : "80075污水厂6",
    "stationId" : "80075",
    "num" : 25,
    "lastTime" : "2017-12-03 20:00:00"
  }, {
    "stationName" : "90066城区38",
    "stationId" : "90066",
    "num" : 25,
    "lastTime" : "2017-12-03 20:00:00"
  }, {
    "stationName" : "80035圣地6",
    "stationId" : "80035",
    "num" : 25,
    "lastTime" : "2017-12-03 20:00:00"
  }
  ]
}
