{
  "total": 200,
  "per_page": 10,
  "current_page": 1,
  "last_page": 20,
  "from": 1,
  "to": 10,
  "data": [
    {
      "id": 77,
      "name": "Adella Bednar",
      "nickname": "eligendi",
      "email": "bailey25@example.com",
      "birthdate": "1990-05-18 00:00:00",
      "gender": "F",
      "salary": "30047.00",
      "group_id": 1,
      "created_at": "2017-01-01 07:21:10",
      "updated_at": "2017-01-01 07:21:10",
      "age": 27
    },
    {
      "id": 56,
      "name": "Ahmad Ortiz Jr.",
      "nickname": "in",
      "email": "lkulas@example.com",
      "birthdate": "1992-09-12 00:00:00",
      "gender": "F",
      "salary": "44326.00",
      "group_id": 1,
      "created_at": "2017-01-01 07:21:10",
      "updated_at": "2017-01-01 07:21:10",
      "age": 25
    },
    {
      "id": 179,
      "name": "Alexane Bruen",
      "nickname": "dolorem",
      "email": "green03@example.com",
      "birthdate": "1991-10-10 00:00:00",
      "gender": "F",
      "salary": "49771.00",
      "group_id": 1,
      "created_at": "2017-01-01 07:21:10",
      "updated_at": "2017-01-01 07:21:10",
      "age": 26
    },
    {
      "id": 52,
      "name": "Alfonzo Dach",
      "nickname": "velit",
      "email": "bahringer.constantin@example.org",
      "birthdate": "1967-04-24 00:00:00",
      "gender": "M",
      "salary": "40084.00",
      "group_id": 4,
      "created_at": "2017-01-01 07:21:10",
      "updated_at": "2017-01-01 07:21:10",
      "age": 50
    },
    {
      "id": 162,
      "name": "Andres Kris",
      "nickname": "ipsam",
      "email": "manuel13@example.org",
      "birthdate": "1984-12-24 00:00:00",
      "gender": "F",
      "salary": "40090.00",
      "group_id": 2,
      "created_at": "2017-01-01 07:21:10",
      "updated_at": "2017-01-01 07:21:10",
      "age": 32
    },
    {
      "id": 181,
      "name": "Angelo Considine",
      "nickname": "molestiae",
      "email": "rutherford.theron@example.com",
      "birthdate": "1978-12-29 00:00:00",
      "gender": "F",
      "salary": "31699.00",
      "group_id": 4,
      "created_at": "2017-01-01 07:21:10",
      "updated_at": "2017-01-01 07:21:10",
      "age": 38
    },
    {
      "id": 124,
      "name": "Armand Kertzmann",
      "nickname": "vel",
      "email": "cummings.chelsey@example.net",
      "birthdate": "1996-08-11 00:00:00",
      "gender": "F",
      "salary": "10903.00",
      "group_id": 5,
      "created_at": "2017-01-01 07:21:10",
      "updated_at": "2017-01-01 07:21:10",
      "age": 21
    },
    {
      "id": 122,
      "name": "Ashlee Wiegand",
      "nickname": "dolore",
      "email": "brett95@example.org",
      "birthdate": "1995-10-08 00:00:00",
      "gender": "F",
      "salary": "17291.00",
      "group_id": 1,
      "created_at": "2017-01-01 07:21:10",
      "updated_at": "2017-01-01 07:21:10",
      "age": 22
    },
    {
      "id": 97,
      "name": "Aubree Wolff",
      "nickname": "labore",
      "email": "reina96@example.net",
      "birthdate": "1967-05-12 00:00:00",
      "gender": "F",
      "salary": "14561.00",
      "group_id": 3,
      "created_at": "2017-01-01 07:21:10",
      "updated_at": "2017-01-01 07:21:10",
      "age": 50
    },
    {
      "id": 128,
      "name": "Audrey Effertz",
      "nickname": "debitis",
      "email": "wisoky.eldon@example.net",
      "birthdate": "1973-06-05 00:00:00",
      "gender": "F",
      "salary": "29057.00",
      "group_id": 1,
      "created_at": "2017-01-01 07:21:10",
      "updated_at": "2017-01-01 07:21:10",
      "age": 44
    }
  ]
}