{
  "data": [
    {
      "stationId": "80120",
      "stationName": "80120电化厂7",
      "projectId": "07a59dc1eafb4fefb1cdaf3fa0d0f6c9",
      "equipmentId": null,
      "pro": 370000,
      "proName": "山东",
      "city": 370800,
      "cityName": "济宁",
      "district": 370801,
      "districtName": "市辖区",
      "equipmentType": 0,
      "stationType": 15,
      "status": 2,
      "latReal": 0.000000,
      "lngReal": 0.000000,
      "lat": 0.000000,
      "lng": 0.000000
    },
    {
      "stationId": "80122",
      "stationName": "80122嘉星A",
      "projectId": "07a59dc1eafb4fefb1cdaf3fa0d0f6c9",
      "equipmentId": null,
      "pro": 370000,
      "proName": "山东",
      "city": 370800,
      "cityName": "济宁",
      "district": 370829,
      "districtName": "嘉祥县",
      "equipmentType": 0,
      "stationType": 16,
      "status": 2,
      "latReal": 0.000000,
      "lngReal": 0.000000,
      "lat": 0.000000,
      "lng": 0.000000
    },
    {
      "stationId": "80123",
      "stationName": "80123宏矿C",
      "projectId": "07a59dc1eafb4fefb1cdaf3fa0d0f6c9",
      "equipmentId": null,
      "pro": 370000,
      "proName": "山东",
      "city": 370800,
      "cityName": "济宁",
      "district": 370883,
      "districtName": "邹城市",
      "equipmentType": 0,
      "stationType": 16,
      "status": 2,
      "latReal": 0.000000,
      "lngReal": 0.000000,
      "lat": 0.000000,
      "lng": 0.000000
    },
    {
      "stationId": "80127",
      "stationName": "80127嘉星D",
      "projectId": "07a59dc1eafb4fefb1cdaf3fa0d0f6c9",
      "equipmentId": null,
      "pro": 370000,
      "proName": "山东",
      "city": 370800,
      "cityName": "济宁",
      "district": 370829,
      "districtName": "嘉祥县",
      "equipmentType": 0,
      "stationType": 16,
      "status": 2,
      "latReal": 0.000000,
      "lngReal": 0.000000,
      "lat": 0.000000,
      "lng": 0.000000
    },
    {
      "stationId": "80125",
      "stationName": "80125嘉星B",
      "projectId": "07a59dc1eafb4fefb1cdaf3fa0d0f6c9",
      "equipmentId": null,
      "pro": 370000,
      "proName": "山东",
      "city": 370800,
      "cityName": "济宁",
      "district": 370829,
      "districtName": "嘉祥县",
      "equipmentType": 0,
      "stationType": 16,
      "status": 2,
      "latReal": 0.000000,
      "lngReal": 0.000000,
      "lat": 0.000000,
      "lng": 0.000000
    },
    {
      "stationId": "80126",
      "stationName": "80126邹电B",
      "projectId": "07a59dc1eafb4fefb1cdaf3fa0d0f6c9",
      "equipmentId": null,
      "pro": 370000,
      "proName": "山东",
      "city": 370800,
      "cityName": "济宁",
      "district": 370883,
      "districtName": "邹城市",
      "equipmentType": 0,
      "stationType": 16,
      "status": 2,
      "latReal": 0.000000,
      "lngReal": 0.000000,
      "lat": 0.000000,
      "lng": 0.000000
    },
    {
      "stationId": "80006",
      "stationName": "80006市监1",
      "projectId": null,
      "equipmentId": "123213312",
      "pro": 370000,
      "proName": "山东",
      "city": 370800,
      "cityName": "济宁",
      "district": 370801,
      "districtName": "市辖区",
      "equipmentType": 0,
      "stationType": 15,
      "status": 2,
      "latReal": 0.000000,
      "lngReal": 0.000000,
      "lat": 0.000000,
      "lng": 0.000000
    },
    {
      "stationId": "80006",
      "stationName": "80006市监1",
      "projectId": null,
      "equipmentId": "123213312",
      "pro": 370000,
      "proName": "山东",
      "city": 370800,
      "cityName": "济宁",
      "district": 370801,
      "districtName": "市辖区",
      "equipmentType": 0,
      "stationType": 15,
      "status": 2,
      "latReal": 0.000000,
      "lngReal": 0.000000,
      "lat": 0.000000,
      "lng": 0.000000
    },
    {
      "stationId": "80006",
      "stationName": "80006市监1",
      "projectId": null,
      "equipmentId": "123213312",
      "pro": 370000,
      "proName": "山东",
      "city": 370800,
      "cityName": "济宁",
      "district": 370801,
      "districtName": "市辖区",
      "equipmentType": 0,
      "stationType": 15,
      "status": 2,
      "latReal": 0.000000,
      "lngReal": 0.000000,
      "lat": 0.000000,
      "lng": 0.000000
    },
    {
      "stationId": "80009",
      "stationName": "80009市监8",
      "projectId": null,
      "equipmentId": null,
      "pro": 370000,
      "proName": "山东",
      "city": 370800,
      "cityName": "济宁",
      "district": 370801,
      "districtName": "市辖区",
      "equipmentType": 0,
      "stationType": 15,
      "status": 2,
      "latReal": 0.000000,
      "lngReal": 0.000000,
      "lat": 0.000000,
      "lng": 0.000000
    }
  ],
  "pagination": {
    "total": 112,
    "per_page": 10,
    "current_page": 1,
    "last_page": 12,
    "from": 1,
    "to": 10
  }
}