{
  "total": 200,
  "per_page": 10,
  "current_page": 1,
  "last_page": 20,
  "next_page_url": "http:\/\/vuetable.ratiw.net\/api\/users?sort=name%7Casc&per_page=10&page=2",
  "prev_page_url": null,
  "from": 1,
  "to": 10,
  "data": [
    {
      "id": 77,
      "name": "Adella Bednar",
      "nickname": "eligendi",
      "email": "bailey25@example.com",
      "birthdate": "1990-05-18 00:00:00",
      "gender": "F",
      "salary": "30047.00",
      "group_id": 1,
      "created_at": "2017-01-01 07:21:10",
      "updated_at": "2017-01-01 07:21:10",
      "age": 27,
      "group": {
        "id": 1,
        "name": "Admin",
        "description": "Administrators"
      },
      "address": {
        "id": 77,
        "user_id": 77,
        "line1": "932 Nitzsche Station\nEast Jany, NH 43570",
        "line2": "Reunion",
        "zipcode": "33860",
        "mobile": "(114)536-4258x508",
        "fax": "819.825.4125"
      }
    },
    {
      "id": 56,
      "name": "Ahmad Ortiz Jr.",
      "nickname": "in",
      "email": "lkulas@example.com",
      "birthdate": "1992-09-12 00:00:00",
      "gender": "F",
      "salary": "44326.00",
      "group_id": 1,
      "created_at": "2017-01-01 07:21:10",
      "updated_at": "2017-01-01 07:21:10",
      "age": 25,
      "group": {
        "id": 1,
        "name": "Admin",
        "description": "Administrators"
      },
      "address": {
        "id": 56,
        "user_id": 56,
        "line1": "40119 Graham Crest\nHesselchester, DE 40502-2856",
        "line2": "Belgium",
        "zipcode": "08883",
        "mobile": "1-579-922-2797x269",
        "fax": "(242)362-0079x30563"
      }
    },
    {
      "id": 179,
      "name": "Alexane Bruen",
      "nickname": "dolorem",
      "email": "green03@example.com",
      "birthdate": "1991-10-10 00:00:00",
      "gender": "F",
      "salary": "49771.00",
      "group_id": 1,
      "created_at": "2017-01-01 07:21:10",
      "updated_at": "2017-01-01 07:21:10",
      "age": 26,
      "group": {
        "id": 1,
        "name": "Admin",
        "description": "Administrators"
      },
      "address": {
        "id": 179,
        "user_id": 179,
        "line1": "539 Armstrong Passage Suite 206\nWest Jerrod, AK 22076-9898",
        "line2": "Honduras",
        "zipcode": "83931",
        "mobile": "(664)039-3778x42612",
        "fax": "1-489-482-8553x492"
      }
    },
    {
      "id": 52,
      "name": "Alfonzo Dach",
      "nickname": "velit",
      "email": "bahringer.constantin@example.org",
      "birthdate": "1967-04-24 00:00:00",
      "gender": "M",
      "salary": "40084.00",
      "group_id": 4,
      "created_at": "2017-01-01 07:21:10",
      "updated_at": "2017-01-01 07:21:10",
      "age": 50,
      "group": {
        "id": 4,
        "name": "Sup",
        "description": "Supervisors"
      },
      "address": {
        "id": 52,
        "user_id": 52,
        "line1": "6026 Lemke Throughway\nPort Alecville, NC 95534",
        "line2": "Turks and Caicos Islands",
        "zipcode": "80281-2063",
        "mobile": "+29(4)7869810126",
        "fax": "408.388.5746x3722"
      }
    },
    {
      "id": 162,
      "name": "Andres Kris",
      "nickname": "ipsam",
      "email": "manuel13@example.org",
      "birthdate": "1984-12-24 00:00:00",
      "gender": "F",
      "salary": "40090.00",
      "group_id": 2,
      "created_at": "2017-01-01 07:21:10",
      "updated_at": "2017-01-01 07:21:10",
      "age": 32,
      "group": {
        "id": 2,
        "name": "Exec",
        "description": "Executives"
      },
      "address": {
        "id": 162,
        "user_id": 162,
        "line1": "671 Manuel Meadow Suite 440\nKiraton, AL 19283-0087",
        "line2": "Nepal",
        "zipcode": "76259",
        "mobile": "575-426-8250",
        "fax": "(086)774-1287x53808"
      }
    },
    {
      "id": 181,
      "name": "Angelo Considine",
      "nickname": "molestiae",
      "email": "rutherford.theron@example.com",
      "birthdate": "1978-12-29 00:00:00",
      "gender": "F",
      "salary": "31699.00",
      "group_id": 4,
      "created_at": "2017-01-01 07:21:10",
      "updated_at": "2017-01-01 07:21:10",
      "age": 38,
      "group": {
        "id": 4,
        "name": "Sup",
        "description": "Supervisors"
      },
      "address": {
        "id": 181,
        "user_id": 181,
        "line1": "518 Helmer Heights\nSouth Amelieborough, MD 15339",
        "line2": "Bangladesh",
        "zipcode": "12005",
        "mobile": "(103)188-3019",
        "fax": "(686)980-4238x187"
      }
    },
    {
      "id": 124,
      "name": "Armand Kertzmann",
      "nickname": "vel",
      "email": "cummings.chelsey@example.net",
      "birthdate": "1996-08-11 00:00:00",
      "gender": "F",
      "salary": "10903.00",
      "group_id": 5,
      "created_at": "2017-01-01 07:21:10",
      "updated_at": "2017-01-01 07:21:10",
      "age": 21,
      "group": {
        "id": 5,
        "name": "Emp",
        "description": "Employees"
      },
      "address": {
        "id": 124,
        "user_id": 124,
        "line1": "261 Terry Turnpike Suite 687\nStoltenbergmouth, CT 44679-2680",
        "line2": "Nigeria",
        "zipcode": "87167",
        "mobile": "(744)604-6171x082",
        "fax": "1-950-463-2381"
      }
    },
    {
      "id": 122,
      "name": "Ashlee Wiegand",
      "nickname": "dolore",
      "email": "brett95@example.org",
      "birthdate": "1995-10-08 00:00:00",
      "gender": "F",
      "salary": "17291.00",
      "group_id": 1,
      "created_at": "2017-01-01 07:21:10",
      "updated_at": "2017-01-01 07:21:10",
      "age": 22,
      "group": {
        "id": 1,
        "name": "Admin",
        "description": "Administrators"
      },
      "address": {
        "id": 122,
        "user_id": 122,
        "line1": "94160 Ryan Springs Suite 000\nLake Pierreburgh, CT 89719-8535",
        "line2": "Zimbabwe",
        "zipcode": "31417",
        "mobile": "183-790-4227x5641",
        "fax": "1-615-070-3393x2545"
      }
    },
    {
      "id": 97,
      "name": "Aubree Wolff",
      "nickname": "labore",
      "email": "reina96@example.net",
      "birthdate": "1967-05-12 00:00:00",
      "gender": "F",
      "salary": "14561.00",
      "group_id": 3,
      "created_at": "2017-01-01 07:21:10",
      "updated_at": "2017-01-01 07:21:10",
      "age": 50,
      "group": {
        "id": 3,
        "name": "Mgr",
        "description": "Managers"
      },
      "address": {
        "id": 97,
        "user_id": 97,
        "line1": "97519 Jonathan Fall Suite 183\nKaiaville, OK 52873-3395",
        "line2": "Mayotte",
        "zipcode": "66232-5764",
        "mobile": "1-434-012-2438",
        "fax": "05696556697"
      }
    },
    {
      "id": 128,
      "name": "Audrey Effertz",
      "nickname": "debitis",
      "email": "wisoky.eldon@example.net",
      "birthdate": "1973-06-05 00:00:00",
      "gender": "F",
      "salary": "29057.00",
      "group_id": 1,
      "created_at": "2017-01-01 07:21:10",
      "updated_at": "2017-01-01 07:21:10",
      "age": 44,
      "group": {
        "id": 1,
        "name": "Admin",
        "description": "Administrators"
      },
      "address": {
        "id": 128,
        "user_id": 128,
        "line1": "6932 Antoinette Junctions\nWest Idell, IA 72570",
        "line2": "Netherlands",
        "zipcode": "64652-4270",
        "mobile": "(610)722-9624",
        "fax": "(110)474-5484x6477"
      }
    }
  ]
}